<svg xmlns="http://www.w3.org/2000/svg" width="360" height="107" viewBox="0 0 360 107">
    <g fill="none" fill-rule="evenodd">
        <g>
            <g>
                <path d="M0 0H360V107H0z" transform="translate(-0.000000, -86.000000) translate(0.000000, 86.000000)"/>
                <g>
                    <path fill="#3AB671" d="M81.697 54.604c3.112 0 5.634 2.522 5.634 5.634 0 3.112-2.522 5.635-5.634 5.635-3.112 0-5.635-2.523-5.635-5.635 0-3.112 2.523-5.634 5.635-5.634zm24.704 0c3.112 0 5.634 2.522 5.634 5.634 0 3.112-2.522 5.635-5.634 5.635-3.112 0-5.635-2.523-5.635-5.635 0-3.112 2.523-5.634 5.635-5.634zM78.355 35.1c.165.945.602 2.288 1.742 3.506 2.345 2.505 6.943 3.832 13.297 3.832 6.28 0 10.878-1.349 12.946-3.797 1.066-1.257 1.348-2.678 1.408-3.541h11.325c-.064 2.696-.784 6.956-4.078 10.852-4.381 5.184-11.65 7.815-21.6 7.815-9.917 0-17.272-2.605-21.857-7.737-3.528-3.948-4.4-8.295-4.568-10.93h11.385zM24.228 16.248l.086 4.334-10.618.217-.087-4.334 10.619-.217zm-.174-7.151v4.334H5.851V9.097h18.203zm-.217-7.151V6.28H0V1.946h23.837z" transform="translate(-0.000000, -86.000000) translate(0.000000, 86.000000) translate(93.000000, 22.000000)"/>
                    <path fill="#4F2E90" d="M93.251 7.831c4.334 0 7.49 1.01 9.474 3.03 1.985 2.015 2.978 5.33 2.978 9.942 0 4.55-.94 7.87-2.826 9.964l-.074.087c-1.929 2.089-5.097 3.133-9.5 3.133s-7.615-1.044-9.634-3.133l-.079-.087c-1.967-2.094-2.946-5.396-2.946-9.912 0-4.572 1.018-7.888 3.05-9.942 2.037-2.055 5.223-3.082 9.557-3.082zM38.851.52c3.705 0 7.523.35 11.459 1.044l-1.2 9.192c-4.352-.87-7.204-1.308-8.565-1.308-1.357 0-2.037.42-2.037 1.253 0 .316.108.532.317.654.207.121.363.216.467.286.104.07.304.156.603.26.295.108.538.204.728.29.191.087.82.347 1.881.78 1.062.438 1.863.785 2.401 1.045.542.264 1.279.689 2.22 1.283 2.717 1.772 4.073 4.381 4.073 7.831 0 3.446-1.027 6.115-3.081 8.014-2.055 1.894-5.006 2.843-8.85 2.843-3.845 0-7.615-.468-11.304-1.409l.733-8.823c4.663 1.183 7.814 1.777 9.448 1.777 1.08 0 1.62-.387 1.62-1.149 0-.351-.133-.628-.393-.837-.26-.208-.642-.437-1.15-.68-.501-.243-1.243-.564-2.218-.966-.975-.4-1.79-.746-2.453-1.045-.663-.295-1.443-.754-2.35-1.382-2.786-1.912-4.177-4.595-4.177-8.04 0-3.446 1.045-6.124 3.133-8.04C32.245 1.478 35.14.52 38.85.52zM140.365 7.83c3.589 0 6.068.594 7.442 1.773 1.374 1.188 2.063 3.047 2.063 5.586l-.312 10.445c0 .486.182.807.546.967.364.156 1.018.234 1.959.234l-.993 6.943c-2.089.139-3.497.208-4.23.208-2.54 0-4.386-.676-5.534-2.037h-.365c-1.672 1.361-3.766 2.037-6.293 2.037-2.522 0-4.438-.667-5.742-2.011-1.304-1.339-1.954-3.19-1.954-5.56 0-2.922.979-4.959 2.946-6.107 1.968-1.149 5.093-1.881 9.37-2.193v-.94c0-.625-.329-.941-.987-.941-1.778 0-4.824.542-9.136 1.62l-1.621-8.251c4.975-1.179 9.257-1.773 12.841-1.773zm-14.775.26l-.312 8.668h-3.55c-1.044 0-1.776.191-2.192.572-.416.386-.624 1.097-.624 2.141v13.995h-10.757V8.455h9.292l.312 1.673h.212c.832-.767 1.79-1.295 2.87-1.59 1.079-.3 2.665-.447 4.75-.447zM63.78 0v10.024c2.124-1.46 4.474-2.193 7.048-2.193 4.733 0 7.1 2.193 7.1 6.58v19.056H66.912V17.28c0-.555-.29-.833-.862-.833-.577 0-1.21.174-1.907.52v13.8h-.217v2.7H53.283V0h10.496zm75.807 23.703c-1.811.242-2.718.94-2.718 2.088 0 .976.404 1.461 1.2 1.461 1.011 0 1.518-.52 1.518-1.565zm-46.36-8.196c-.733 0-1.193.303-1.384.914-.195.607-.29 1.903-.29 3.888v1.252c0 2.228.095 3.663.29 4.309.19.645.65.966 1.383.966.728 0 1.192-.32 1.383-.966.19-.646.286-1.994.286-4.048V20.36c0-2.02-.096-3.333-.286-3.94-.191-.611-.655-.914-1.383-.914z" transform="translate(-0.000000, -86.000000) translate(0.000000, 86.000000) translate(93.000000, 22.000000)"/>
                </g>
            </g>
        </g>
    </g>
</svg>
